# %ECSV 0.9
# ---
# datatype:
# - {name: wavelength, unit: Angstrom, datatype: float64}
# - {name: u1, unit: , datatype: float64}
# - {name: u2, unit: , datatype: float64}
# - {name: u3, unit: , datatype: float64}
# - {name: u4, unit: , datatype: float64}
# schema: astropy-2.0
#
wavelength  u1        u2        u3        u4
2.50000E+04  7.5859791E-01  7.5859791E-01  7.5859791E-01  7.5859791E-01
2.75000E+04  7.6787710E-01  7.6787710E-01  7.6787710E-01  7.6787710E-01
3.00000E+04  7.3030042E-01  7.3030042E-01  7.3030042E-01  7.3030042E-01
3.25000E+04  6.8588292E-01  6.8588292E-01  6.8588292E-01  6.8588292E-01
3.50000E+04  6.3531855E-01  6.3531855E-01  6.3531855E-01  6.3531855E-01
3.75000E+04  6.0520545E-01  6.0520545E-01  6.0520545E-01  6.0520545E-01
4.00000E+04  6.3898594E-01  6.3898594E-01  6.3898594E-01  6.3898594E-01
4.25000E+04  6.1149408E-01  6.1149408E-01  6.1149408E-01  6.1149408E-01
4.50000E+04  5.4259927E-01  5.4259927E-01  5.4259927E-01  5.4259927E-01
4.75000E+04  5.3319264E-01  5.3319264E-01  5.3319264E-01  5.3319264E-01
5.00000E+04  5.1870013E-01  5.1870013E-01  5.1870013E-01  5.1870013E-01
5.25000E+04  5.0704172E-01  5.0704172E-01  5.0704172E-01  5.0704172E-01
5.50000E+04  4.9774276E-01  4.9774276E-01  4.9774276E-01  4.9774276E-01
5.75000E+04  4.8505995E-01  4.8505995E-01  4.8505995E-01  4.8505995E-01
6.00000E+04  4.6952120E-01  4.6952120E-01  4.6952120E-01  4.6952120E-01
6.25000E+04  5.2695404E-01  5.2695404E-01  5.2695404E-01  5.2695404E-01
6.50000E+04  4.9102698E-01  4.9102698E-01  4.9102698E-01  4.9102698E-01
6.75000E+04  4.7221904E-01  4.7221904E-01  4.7221904E-01  4.7221904E-01
7.00000E+04  4.6186213E-01  4.6186213E-01  4.6186213E-01  4.6186213E-01
7.25000E+04  4.5188272E-01  4.5188272E-01  4.5188272E-01  4.5188272E-01
7.50000E+04  5.5006565E-01  5.5006565E-01  5.5006565E-01  5.5006565E-01
7.75000E+04  5.7514228E-01  5.7514228E-01  5.7514228E-01  5.7514228E-01
8.00000E+04  5.5859616E-01  5.5859616E-01  5.5859616E-01  5.5859616E-01
8.25000E+04  5.4128679E-01  5.4128679E-01  5.4128679E-01  5.4128679E-01
8.50000E+04  5.3482753E-01  5.3482753E-01  5.3482753E-01  5.3482753E-01
8.75000E+04  5.2304295E-01  5.2304295E-01  5.2304295E-01  5.2304295E-01
9.00000E+04  5.3633066E-01  5.3633066E-01  5.3633066E-01  5.3633066E-01
9.10000E+04  5.0338814E-01  5.0338814E-01  5.0338814E-01  5.0338814E-01
9.20000E+04  5.2674444E-01  5.2674444E-01  5.2674444E-01  5.2674444E-01
9.30000E+04  5.1324461E-01  5.1324461E-01  5.1324461E-01  5.1324461E-01
9.40000E+04  5.1001483E-01  5.1001483E-01  5.1001483E-01  5.1001483E-01
9.50000E+04  5.0017996E-01  5.0017996E-01  5.0017996E-01  5.0017996E-01
9.60000E+04  4.8723916E-01  4.8723916E-01  4.8723916E-01  4.8723916E-01
9.70000E+04  5.4690452E-01  5.4690452E-01  5.4690452E-01  5.4690452E-01
9.80000E+04  5.4157718E-01  5.4157718E-01  5.4157718E-01  5.4157718E-01
